<?xml version="1.0" encoding="utf-8"?>
<!-- Generator: Adobe Illustrator 21.0.2, SVG Export Plug-In . SVG Version: 6.00 Build 0)  -->
<svg version="1.1" id="Layer_1" xmlns="http://www.w3.org/2000/svg" xmlns:xlink="http://www.w3.org/1999/xlink" x="0px" y="0px"
	 viewBox="0 0 50 50" style="enable-background:new 0 0 50 50;" xml:space="preserve">
<style type="text/css">
	.st0{fill:#FFFFFF;}
	.st1{fill:none;stroke:#FFFFFF;stroke-miterlimit:10;}
	.st2{clip-path:url(#SVGID_2_);fill:#ED1C24;}
	.st3{clip-path:url(#SVGID_4_);fill:#ED1C24;}
	.st4{clip-path:url(#SVGID_6_);fill:#ED1C24;}
	.st5{clip-path:url(#SVGID_8_);fill:#ED1C24;}
</style>
<text transform="matrix(1 0 0 1 57.6763 257.7841)" class="st0" style="font-family:'BlissPro-Bold'; font-size:17px;">RECETA</text>
<g>
	<text transform="matrix(1 0 0 1 6.2605 137.1981)" class="st0" style="font-family:'BlissPro-Bold'; font-size:17px;">NOMBRE PRODUCTO</text>
</g>
<rect x="7.5" y="238.7" class="st1" width="158" height="27"/>
<g>
	<g>
		<text transform="matrix(1 0 0 1 10.9652 218.945)" class="st0" style="font-family:'BlissPro-Bold'; font-size:10px;">25 MIN</text>
	</g>
	<g>
		<text transform="matrix(1 0 0 1 82.7037 208.945)"><tspan x="0" y="0" class="st0" style="font-family:'BlissPro-Bold'; font-size:10px;">4</tspan><tspan x="-20.4" y="10" class="st0" style="font-family:'BlissPro-Bold'; font-size:10px;">PORCIONES</tspan></text>
	</g>
	<g>
		<text transform="matrix(1 0 0 1 121.0671 218.945)" class="st0" style="font-family:'BlissPro-Bold'; font-size:10px;">DIFICULTAD</text>
	</g>
</g>
<g>
	<g>
		<g>
			<path class="st0" d="M25,197.5c-12.6,0-22.9-10.3-22.9-22.9s10.3-22.9,22.9-22.9s22.9,10.3,22.9,22.9S37.6,197.5,25,197.5z
				 M25,153.8c-11.5,0-20.9,9.4-20.9,20.9s9.4,20.9,20.9,20.9s20.9-9.4,20.9-20.9S36.5,153.8,25,153.8z"/>
		</g>
	</g>
	<g>
		<g>
			<path class="st0" d="M23,177.1c-0.6,0-1-0.4-1-1v-16.5c0-0.6,0.4-1,1-1s1,0.4,1,1v16.5C24,176.7,23.5,177.1,23,177.1z"/>
		</g>
		<g>
			<path class="st0" d="M39.4,177.1H22.9c-0.6,0-1-0.4-1-1s0.4-1,1-1h16.5c0.6,0,1,0.4,1,1S39.9,177.1,39.4,177.1z"/>
		</g>
	</g>
</g>
<g>
	<g>
		<g>
			<path class="st0" d="M86.3,197.5c-12.6,0-22.9-10.3-22.9-22.9s10.3-22.9,22.9-22.9s22.9,10.3,22.9,22.9S98.9,197.5,86.3,197.5z
				 M86.3,153.8c-11.5,0-20.9,9.4-20.9,20.9s9.4,20.9,20.9,20.9s20.9-9.4,20.9-20.9S97.8,153.8,86.3,153.8z"/>
		</g>
	</g>
	<g>
		<path class="st0" d="M86.3,196.5c-0.6,0-1-0.4-1-1v-41.7c0-0.6,0.4-1,1-1s1,0.4,1,1v41.7C87.3,196.1,86.8,196.5,86.3,196.5z"/>
	</g>
	<g>
		<path class="st0" d="M108.1,175.7H64.4c-0.6,0-1-0.4-1-1s0.4-1,1-1h43.7c0.6,0,1,0.4,1,1S108.6,175.7,108.1,175.7z"/>
	</g>
</g>
<g>
	<g>
		<defs>
			<circle id="SVGID_1_" cx="145.6" cy="174.8" r="21.5"/>
		</defs>
		<clipPath id="SVGID_2_">
			<use xlink:href="#SVGID_1_"  style="overflow:visible;"/>
		</clipPath>
		<rect x="121.4" y="153.8" class="st2" width="30.7" height="45.7"/>
	</g>
	<g>
		<g>
			<path class="st0" d="M145.3,197.5c-12.6,0-22.9-10.3-22.9-22.9s10.3-22.9,22.9-22.9s22.9,10.3,22.9,22.9S157.9,197.5,145.3,197.5
				z M145.3,153.8c-11.5,0-20.9,9.4-20.9,20.9s9.4,20.9,20.9,20.9s20.9-9.4,20.9-20.9S156.8,153.8,145.3,153.8z"/>
		</g>
	</g>
	<g>
		<path class="st0" d="M137.5,194.6c-0.6,0-1-0.4-1-0.9v-38.9c0-0.5,0.4-0.9,1-0.9s1,0.4,1,0.9v38.9
			C138.5,194.1,138,194.6,137.5,194.6z"/>
	</g>
	<g>
		<path class="st0" d="M153.1,194.6c-0.6,0-1-0.4-1-0.9v-38.9c0-0.5,0.4-0.9,1-0.9s1,0.4,1,0.9v38.9
			C154.1,194.1,153.7,194.6,153.1,194.6z"/>
	</g>
</g>
<g>
	<g>
		<defs>
			<circle id="SVGID_3_" cx="145.1" cy="26.1" r="21.5"/>
		</defs>
		<clipPath id="SVGID_4_">
			<use xlink:href="#SVGID_3_"  style="overflow:visible;"/>
		</clipPath>
		<rect x="120.9" y="5.1" class="st3" width="45.7" height="45.7"/>
	</g>
	<g>
		<g>
			<path class="st0" d="M144.8,48.9c-12.6,0-22.9-10.3-22.9-22.9s10.3-22.9,22.9-22.9s22.9,10.3,22.9,22.9S157.4,48.9,144.8,48.9z
				 M144.8,5.1c-11.5,0-20.9,9.4-20.9,20.9s9.4,20.9,20.9,20.9s20.9-9.4,20.9-20.9S156.3,5.1,144.8,5.1z"/>
		</g>
	</g>
	<g>
		<path class="st0" d="M137,46.9c-0.6,0-1-0.4-1-0.9V6.1c0-0.5,0.4-0.9,1-0.9s1,0.4,1,0.9V46C138,46.5,137.5,46.9,137,46.9z"/>
	</g>
	<g>
		<path class="st0" d="M152.6,46.9c-0.6,0-1-0.4-1-0.9V6.1c0-0.5,0.4-0.9,1-0.9s1,0.4,1,0.9V46C153.6,46.5,153.2,46.9,152.6,46.9z"
			/>
	</g>
</g>
<g>
	<g>
		<defs>
			<circle id="SVGID_5_" cx="145.1" cy="-35.5" r="21.5"/>
		</defs>
		<clipPath id="SVGID_6_">
			<use xlink:href="#SVGID_5_"  style="overflow:visible;"/>
		</clipPath>
		<rect x="120.9" y="-56.5" class="st4" width="30.7" height="45.7"/>
	</g>
	<g>
		<g>
			<path class="st0" d="M144.8-12.8c-12.6,0-22.9-10.3-22.9-22.9s10.3-22.9,22.9-22.9s22.9,10.3,22.9,22.9S157.4-12.8,144.8-12.8z
				 M144.8-56.5c-11.5,0-20.9,9.4-20.9,20.9s9.4,20.9,20.9,20.9s20.9-9.4,20.9-20.9S156.3-56.5,144.8-56.5z"/>
		</g>
	</g>
	<g>
		<path class="st0" d="M137-14.8c-0.6,0-1-0.4-1-0.9v-39.9c0-0.5,0.4-0.9,1-0.9s1,0.4,1,0.9v39.9C138-15.2,137.5-14.8,137-14.8z"/>
	</g>
	<g>
		<path class="st0" d="M152.6-14.8c-0.6,0-1-0.4-1-0.9v-39.9c0-0.5,0.4-0.9,1-0.9s1,0.4,1,0.9v39.9
			C153.6-15.2,153.2-14.8,152.6-14.8z"/>
	</g>
</g>
<g>
	<g>
		<defs>
			<circle id="SVGID_7_" cx="145.6" cy="-99.2" r="21.5"/>
		</defs>
		<clipPath id="SVGID_8_">
			<use xlink:href="#SVGID_7_"  style="overflow:visible;"/>
		</clipPath>
		<rect x="121.4" y="-120.2" class="st5" width="15.7" height="45.7"/>
	</g>
	<g>
		<g>
			<path class="st0" d="M145.3-76.5c-12.6,0-22.9-10.3-22.9-22.9s10.3-22.9,22.9-22.9s22.9,10.3,22.9,22.9S157.9-76.5,145.3-76.5z
				 M145.3-120.2c-11.5,0-20.9,9.4-20.9,20.9s9.4,20.9,20.9,20.9s20.9-9.4,20.9-20.9S156.8-120.2,145.3-120.2z"/>
		</g>
	</g>
	<g>
		<path class="st0" d="M137.5-78.4c-0.6,0-1-0.4-1-0.9v-39.9c0-0.5,0.4-0.9,1-0.9s1,0.4,1,0.9v39.9C138.5-78.9,138-78.4,137.5-78.4z
			"/>
	</g>
	<g>
		<path class="st0" d="M153.1-78.4c-0.6,0-1-0.4-1-0.9v-39.9c0-0.5,0.4-0.9,1-0.9s1,0.4,1,0.9v39.9
			C154.1-78.9,153.7-78.4,153.1-78.4z"/>
	</g>
</g>
<g>
	<g>
		<g>
			<path class="st0" d="M25,47.9C12.4,47.9,2.1,37.6,2.1,25S12.4,2.1,25,2.1S47.9,12.4,47.9,25S37.6,47.9,25,47.9z M25,4.1
				C13.5,4.1,4.1,13.5,4.1,25S13.5,45.9,25,45.9S45.9,36.5,45.9,25S36.5,4.1,25,4.1z"/>
		</g>
	</g>
	<g>
		<g>
			<path class="st0" d="M23,27.5c-0.6,0-1-0.4-1-1V10c0-0.6,0.4-1,1-1s1,0.4,1,1v16.5C24,27,23.5,27.5,23,27.5z"/>
		</g>
		<g>
			<path class="st0" d="M39.4,27.5H22.9c-0.6,0-1-0.4-1-1s0.4-1,1-1h16.5c0.6,0,1,0.4,1,1S39.9,27.5,39.4,27.5z"/>
		</g>
	</g>
</g>
<g>
	<g>
		<g>
			<path class="st0" d="M86.3,47.9c-12.6,0-22.9-10.3-22.9-22.9S73.7,2.1,86.3,2.1s22.9,10.3,22.9,22.9S98.9,47.9,86.3,47.9z
				 M86.3,4.1c-11.5,0-20.9,9.4-20.9,20.9s9.4,20.9,20.9,20.9s20.9-9.4,20.9-20.9S97.8,4.1,86.3,4.1z"/>
		</g>
	</g>
	<g>
		<path class="st0" d="M86.3,46.9c-0.6,0-1-0.4-1-1V4.1c0-0.6,0.4-1,1-1s1,0.4,1,1v41.7C87.3,46.4,86.8,46.9,86.3,46.9z"/>
	</g>
	<g>
		<path class="st0" d="M108.1,26H64.4c-0.6,0-1-0.4-1-1s0.4-1,1-1h43.7c0.6,0,1,0.4,1,1S108.6,26,108.1,26z"/>
	</g>
</g>
<g>
	<g>
		<g>
			<path class="st0" d="M45.3-65h1.3v4.7h0c0.3-0.4,0.5-0.7,0.8-1l3-3.6h1.6l-3.5,4.1l3.8,5.6h-1.5L47.5-60L46.5-59v3.7h-1.3V-65z"
				/>
			<path class="st0" d="M59.3-55.6c-0.5,0.2-1.4,0.5-2.6,0.5c-2.7,0-4.8-1.7-4.8-4.9c0-3,2.1-5.1,5.1-5.1c1.2,0,2,0.3,2.3,0.4
				l-0.3,1c-0.5-0.2-1.2-0.4-2-0.4c-2.3,0-3.8,1.5-3.8,4c0,2.4,1.4,3.9,3.7,3.9c0.8,0,1.5-0.2,2-0.4L59.3-55.6z"/>
			<path class="st0" d="M61.9-58.3l-1,3h-1.3l3.3-9.7h1.5l3.3,9.7h-1.3l-1-3H61.9z M65-59.3l-0.9-2.8c-0.2-0.6-0.4-1.2-0.5-1.8h0
				c-0.1,0.6-0.3,1.2-0.5,1.8l-0.9,2.8H65z"/>
			<path class="st0" d="M68.5-65h1.3v8.6h4.1v1.1h-5.4V-65z"/>
		</g>
	</g>
	<g>
		<g>
			<path class="st0" d="M59.8-37.5C47.2-37.5,37-47.7,37-60.3s10.3-22.9,22.9-22.9s22.9,10.3,22.9,22.9S72.4-37.5,59.8-37.5z
				 M59.8-81.2C48.3-81.2,39-71.8,39-60.3s9.4,20.9,20.9,20.9s20.9-9.4,20.9-20.9S71.3-81.2,59.8-81.2z"/>
		</g>
	</g>
</g>
</svg>
