<?xml version="1.0" encoding="utf-8"?>
<!-- Generator: Adobe Illustrator 21.0.2, SVG Export Plug-In . SVG Version: 6.00 Build 0)  -->
<svg version="1.1" id="Layer_1" xmlns="http://www.w3.org/2000/svg" xmlns:xlink="http://www.w3.org/1999/xlink" x="0px" y="0px"
	 viewBox="0 0 50 50" style="enable-background:new 0 0 50 50;" xml:space="preserve">
<style type="text/css">
	.st0{fill:#FFFFFF;}
	.st1{fill:none;stroke:#FFFFFF;stroke-miterlimit:10;}
	.st2{clip-path:url(#SVGID_2_);fill:#ED1C24;}
	.st3{clip-path:url(#SVGID_4_);fill:#ED1C24;}
	.st4{clip-path:url(#SVGID_6_);fill:#ED1C24;}
	.st5{clip-path:url(#SVGID_8_);fill:#ED1C24;}
</style>
<text transform="matrix(1 0 0 1 -62.5922 382.1175)" class="st0" style="font-family:'BlissPro-Bold'; font-size:17px;">RECETA</text>
<g>
	<text transform="matrix(1 0 0 1 -114.008 261.5314)" class="st0" style="font-family:'BlissPro-Bold'; font-size:17px;">NOMBRE PRODUCTO</text>
</g>
<rect x="-112.8" y="363.1" class="st1" width="158" height="27"/>
<g>
	<g>
		<text transform="matrix(1 0 0 1 -109.3033 343.2783)" class="st0" style="font-family:'BlissPro-Bold'; font-size:10px;">25 MIN</text>
	</g>
	<g>
		<text transform="matrix(1 0 0 1 -37.5648 333.2783)"><tspan x="0" y="0" class="st0" style="font-family:'BlissPro-Bold'; font-size:10px;">4</tspan><tspan x="-20.4" y="10" class="st0" style="font-family:'BlissPro-Bold'; font-size:10px;">PORCIONES</tspan></text>
	</g>
	<g>
		<text transform="matrix(1 0 0 1 0.7986 343.2783)" class="st0" style="font-family:'BlissPro-Bold'; font-size:10px;">DIFICULTAD</text>
	</g>
</g>
<g>
	<g>
		<g>
			<path class="st0" d="M-95.3,321.9c-12.6,0-22.9-10.3-22.9-22.9s10.3-22.9,22.9-22.9s22.9,10.3,22.9,22.9S-82.7,321.9-95.3,321.9z
				 M-95.3,278.1c-11.5,0-20.9,9.4-20.9,20.9s9.4,20.9,20.9,20.9s20.9-9.4,20.9-20.9S-83.8,278.1-95.3,278.1z"/>
		</g>
	</g>
	<g>
		<g>
			<path class="st0" d="M-97.3,301.5c-0.6,0-1-0.4-1-1V284c0-0.6,0.4-1,1-1s1,0.4,1,1v16.5C-96.3,301-96.7,301.5-97.3,301.5z"/>
		</g>
		<g>
			<path class="st0" d="M-80.9,301.5h-16.5c-0.6,0-1-0.4-1-1s0.4-1,1-1h16.5c0.6,0,1,0.4,1,1S-80.3,301.5-80.9,301.5z"/>
		</g>
	</g>
</g>
<g>
	<g>
		<g>
			<path class="st0" d="M-34,321.9c-12.6,0-22.9-10.3-22.9-22.9s10.3-22.9,22.9-22.9s22.9,10.3,22.9,22.9S-21.4,321.9-34,321.9z
				 M-34,278.1c-11.5,0-20.9,9.4-20.9,20.9s9.4,20.9,20.9,20.9s20.9-9.4,20.9-20.9S-22.5,278.1-34,278.1z"/>
		</g>
	</g>
	<g>
		<path class="st0" d="M-34,320.9c-0.6,0-1-0.4-1-1v-41.7c0-0.6,0.4-1,1-1s1,0.4,1,1v41.7C-33,320.4-33.4,320.9-34,320.9z"/>
	</g>
	<g>
		<path class="st0" d="M-12.2,300h-43.7c-0.6,0-1-0.4-1-1s0.4-1,1-1h43.7c0.6,0,1,0.4,1,1S-11.6,300-12.2,300z"/>
	</g>
</g>
<g>
	<g>
		<defs>
			<circle id="SVGID_1_" cx="25.4" cy="299.1" r="21.5"/>
		</defs>
		<clipPath id="SVGID_2_">
			<use xlink:href="#SVGID_1_"  style="overflow:visible;"/>
		</clipPath>
		<rect x="1.1" y="278.1" class="st2" width="30.7" height="45.7"/>
	</g>
	<g>
		<g>
			<path class="st0" d="M25,321.9c-12.6,0-22.9-10.3-22.9-22.9s10.3-22.9,22.9-22.9s22.9,10.3,22.9,22.9S37.6,321.9,25,321.9z
				 M25,278.1c-11.5,0-20.9,9.4-20.9,20.9s9.4,20.9,20.9,20.9s20.9-9.4,20.9-20.9S36.5,278.1,25,278.1z"/>
		</g>
	</g>
	<g>
		<path class="st0" d="M17.2,318.9c-0.6,0-1-0.4-1-0.9v-38.9c0-0.5,0.4-0.9,1-0.9s1,0.4,1,0.9V318C18.2,318.5,17.7,318.9,17.2,318.9
			z"/>
	</g>
	<g>
		<path class="st0" d="M32.9,318.9c-0.6,0-1-0.4-1-0.9v-38.9c0-0.5,0.4-0.9,1-0.9s1,0.4,1,0.9V318C33.9,318.5,33.4,318.9,32.9,318.9
			z"/>
	</g>
</g>
<g>
	<g>
		<defs>
			<circle id="SVGID_3_" cx="24.9" cy="150.5" r="21.5"/>
		</defs>
		<clipPath id="SVGID_4_">
			<use xlink:href="#SVGID_3_"  style="overflow:visible;"/>
		</clipPath>
		<rect x="0.6" y="129.5" class="st3" width="45.7" height="45.7"/>
	</g>
	<g>
		<g>
			<path class="st0" d="M24.5,173.2c-12.6,0-22.9-10.3-22.9-22.9s10.3-22.9,22.9-22.9s22.9,10.3,22.9,22.9S37.1,173.2,24.5,173.2z
				 M24.5,129.5c-11.5,0-20.9,9.4-20.9,20.9s9.4,20.9,20.9,20.9s20.9-9.4,20.9-20.9S36,129.5,24.5,129.5z"/>
		</g>
	</g>
	<g>
		<path class="st0" d="M16.7,171.2c-0.6,0-1-0.4-1-0.9v-39.9c0-0.5,0.4-0.9,1-0.9s1,0.4,1,0.9v39.9
			C17.7,170.8,17.2,171.2,16.7,171.2z"/>
	</g>
	<g>
		<path class="st0" d="M32.4,171.2c-0.6,0-1-0.4-1-0.9v-39.9c0-0.5,0.4-0.9,1-0.9s1,0.4,1,0.9v39.9
			C33.4,170.8,32.9,171.2,32.4,171.2z"/>
	</g>
</g>
<g>
	<g>
		<defs>
			<circle id="SVGID_5_" cx="24.9" cy="88.8" r="21.5"/>
		</defs>
		<clipPath id="SVGID_6_">
			<use xlink:href="#SVGID_5_"  style="overflow:visible;"/>
		</clipPath>
		<rect x="0.6" y="67.8" class="st4" width="30.7" height="45.7"/>
	</g>
	<g>
		<g>
			<path class="st0" d="M24.5,111.5c-12.6,0-22.9-10.3-22.9-22.9s10.3-22.9,22.9-22.9s22.9,10.3,22.9,22.9S37.1,111.5,24.5,111.5z
				 M24.5,67.8C13,67.8,3.6,77.2,3.6,88.7s9.4,20.9,20.9,20.9s20.9-9.4,20.9-20.9S36,67.8,24.5,67.8z"/>
		</g>
	</g>
	<g>
		<path class="st0" d="M16.7,109.6c-0.6,0-1-0.4-1-0.9V68.7c0-0.5,0.4-0.9,1-0.9s1,0.4,1,0.9v39.9C17.7,109.1,17.2,109.6,16.7,109.6
			z"/>
	</g>
	<g>
		<path class="st0" d="M32.4,109.6c-0.6,0-1-0.4-1-0.9V68.7c0-0.5,0.4-0.9,1-0.9s1,0.4,1,0.9v39.9C33.4,109.1,32.9,109.6,32.4,109.6
			z"/>
	</g>
</g>
<g>
	<g>
		<defs>
			<circle id="SVGID_7_" cx="25.4" cy="25.1" r="21.5"/>
		</defs>
		<clipPath id="SVGID_8_">
			<use xlink:href="#SVGID_7_"  style="overflow:visible;"/>
		</clipPath>
		<rect x="1.1" y="4.1" class="st5" width="15.7" height="45.7"/>
	</g>
	<g>
		<g>
			<path class="st0" d="M25,47.9C12.4,47.9,2.1,37.6,2.1,25S12.4,2.1,25,2.1S47.9,12.4,47.9,25S37.6,47.9,25,47.9z M25,4.1
				C13.5,4.1,4.1,13.5,4.1,25S13.5,45.9,25,45.9S45.9,36.5,45.9,25S36.5,4.1,25,4.1z"/>
		</g>
	</g>
	<g>
		<path class="st0" d="M17.2,45.9c-0.6,0-1-0.4-1-0.9V5.1c0-0.5,0.4-0.9,1-0.9s1,0.4,1,0.9V45C18.2,45.5,17.7,45.9,17.2,45.9z"/>
	</g>
	<g>
		<path class="st0" d="M32.9,45.9c-0.6,0-1-0.4-1-0.9V5.1c0-0.5,0.4-0.9,1-0.9s1,0.4,1,0.9V45C33.9,45.5,33.4,45.9,32.9,45.9z"/>
	</g>
</g>
<g>
	<g>
		<g>
			<path class="st0" d="M-95.3,172.2c-12.6,0-22.9-10.3-22.9-22.9s10.3-22.9,22.9-22.9s22.9,10.3,22.9,22.9S-82.7,172.2-95.3,172.2z
				 M-95.3,128.5c-11.5,0-20.9,9.4-20.9,20.9s9.4,20.9,20.9,20.9s20.9-9.4,20.9-20.9S-83.8,128.5-95.3,128.5z"/>
		</g>
	</g>
	<g>
		<g>
			<path class="st0" d="M-97.3,151.8c-0.6,0-1-0.4-1-1v-16.5c0-0.6,0.4-1,1-1s1,0.4,1,1v16.5C-96.3,151.4-96.7,151.8-97.3,151.8z"/>
		</g>
		<g>
			<path class="st0" d="M-80.9,151.8h-16.5c-0.6,0-1-0.4-1-1s0.4-1,1-1h16.5c0.6,0,1,0.4,1,1S-80.3,151.8-80.9,151.8z"/>
		</g>
	</g>
</g>
<g>
	<g>
		<g>
			<path class="st0" d="M-34,172.2c-12.6,0-22.9-10.3-22.9-22.9s10.3-22.9,22.9-22.9s22.9,10.3,22.9,22.9S-21.4,172.2-34,172.2z
				 M-34,128.5c-11.5,0-20.9,9.4-20.9,20.9s9.4,20.9,20.9,20.9s20.9-9.4,20.9-20.9S-22.5,128.5-34,128.5z"/>
		</g>
	</g>
	<g>
		<path class="st0" d="M-34,171.2c-0.6,0-1-0.4-1-1v-41.7c0-0.6,0.4-1,1-1s1,0.4,1,1v41.7C-33,170.8-33.4,171.2-34,171.2z"/>
	</g>
	<g>
		<path class="st0" d="M-12.2,150.3h-43.7c-0.6,0-1-0.4-1-1s0.4-1,1-1h43.7c0.6,0,1,0.4,1,1S-11.6,150.3-12.2,150.3z"/>
	</g>
</g>
<g>
	<g>
		<g>
			<path class="st0" d="M-75,59.4h1.3v4.7h0c0.3-0.4,0.5-0.7,0.8-1l3-3.6h1.6l-3.5,4.1l3.8,5.6h-1.5l-3.2-4.8l-0.9,1.1v3.7H-75V59.4
				z"/>
			<path class="st0" d="M-61,68.8c-0.5,0.2-1.4,0.5-2.6,0.5c-2.7,0-4.8-1.7-4.8-4.9c0-3,2.1-5.1,5.1-5.1c1.2,0,2,0.3,2.3,0.4l-0.3,1
				c-0.5-0.2-1.2-0.4-2-0.4c-2.3,0-3.8,1.5-3.8,4c0,2.4,1.4,3.9,3.7,3.9c0.8,0,1.5-0.2,2-0.4L-61,68.8z"/>
			<path class="st0" d="M-58.4,66l-1,3h-1.3l3.3-9.7h1.5l3.3,9.7h-1.3l-1-3H-58.4z M-55.2,65l-0.9-2.8c-0.2-0.6-0.4-1.2-0.5-1.8h0
				c-0.1,0.6-0.3,1.2-0.5,1.8l-0.9,2.8H-55.2z"/>
			<path class="st0" d="M-51.8,59.4h1.3V68h4.1v1.1h-5.4V59.4z"/>
		</g>
	</g>
	<g>
		<g>
			<path class="st0" d="M-60.4,86.9c-12.6,0-22.9-10.3-22.9-22.9s10.3-22.9,22.9-22.9S-37.6,51.4-37.6,64S-47.8,86.9-60.4,86.9z
				 M-60.4,43.1c-11.5,0-20.9,9.4-20.9,20.9s9.4,20.9,20.9,20.9s20.9-9.4,20.9-20.9S-48.9,43.1-60.4,43.1z"/>
		</g>
	</g>
</g>
</svg>
